Text and Sentiment Analysis of 4 novels from Gutenberg.com
…
The knowledge and principles of text and sentiment analysis have been derived from the extremely concise and informative Text Mining in R written by Julia Silge and David Robinson.

Text Analysis:

This section will focus on the word frequencies of the words in the 4 novels and observe how each novel can be differentiated from all the others by the words that occur most frequently in them.

The Adventures of Tom Sawyer:

The most common words in the novel are:

## # A tibble: 7,595 x 2
##    word      n
##    <chr> <int>
##  1 the    3792
##  2 and    3125
##  3 a      1896
##  4 to     1726
##  5 of     1463
##  6 he     1195
##  7 was    1166
##  8 it     1151
##  9 in      955
## 10 that    905
## # ... with 7,585 more rows

Understandably, the most common words are words like the, and, a, etc. These words are commonly occuring throughout the English language are thus do not reveal anything about the novel. The below code removes such words and then displays the most frequently occuring words in the novel:

## # A tibble: 7,034 x 2
##    word      n
##    <chr> <int>
##  1 tom     722
##  2 huck    232
##  3 time    191
##  4 boys    158
##  5 joe     138
##  6 boy     122
##  7 becky   102
##  8 tom's    97
##  9 night    92
## 10 found    85
## # ... with 7,024 more rows
…
Dracula:

The most common words in Dracula are:

## # A tibble: 9,668 x 2
##    word      n
##    <chr> <int>
##  1 the    7910
##  2 and    5906
##  3 i      4801
##  4 to     4665
##  5 of     3629
##  6 a      2954
##  7 he     2567
##  8 in     2509
##  9 that   2469
## 10 it     2156
## # ... with 9,658 more rows

As was the case with The Adventures of Tom Sawyer, the most common words in Dracula are also words like the, and, of, etc. After removing such words, the most common words are:

## # A tibble: 9,072 x 2
##    word        n
##    <chr>   <int>
##  1 time      390
##  2 van       323
##  3 night     310
##  4 helsing   301
##  5 dear      224
##  6 lucy      223
##  7 day       220
##  8 hand      210
##  9 mina      210
## 10 door      200
## # ... with 9,062 more rows
…
The War of the Worlds:

The most frequent words in The War of the Worlds along with their frequencies are:

## # A tibble: 6,830 x 2
##    word      n
##    <chr> <int>
##  1 the    4793
##  2 and    2504
##  3 of     2301
##  4 a      1635
##  5 i      1272
##  6 to     1175
##  7 in     1001
##  8 was     853
##  9 that    772
## 10 it      659
## # ... with 6,820 more rows

Similar to the above 2 novels, this novel too has unimportant words like the, and, of, etc. as its most common words. Upon removing such words, the results are:

## # A tibble: 6,302 x 2
##    word         n
##    <chr>    <int>
##  1 martians   163
##  2 people     159
##  3 black      122
##  4 time       121
##  5 road       104
##  6 night      102
##  7 brother     91
##  8 pit         83
##  9 martian     79
## 10 water       79
## # ... with 6,292 more rows
…
Mike and Psmith:

The most frequent words in Mike and Psmith are:

## # A tibble: 5,941 x 2
##    word      n
##    <chr> <int>
##  1 the    3085
##  2 a      1572
##  3 to     1460
##  4 of     1376
##  5 and    1161
##  6 he     1034
##  7 was     926
##  8 in      897
##  9 it      794
## 10 i       737
## # ... with 5,931 more rows

The most frequent words after removing stop words are:

## # A tibble: 5,367 x 2
##    word        n
##    <chr>   <int>
##  1 mike      405
##  2 psmith    290
##  3 sir       237
##  4 adair     164
##  5 school    164
##  6 house     115
##  7 time      105
##  8 smith     102
##  9 cricket    99
## 10 jackson    99
## # ... with 5,357 more rows
…
